Bolivia Census 2024 — Person-level data
…
The DDI XML (BOL-INE-CPV-2024.xml) contains 184 variable entries. For categorical variables the response categories are embedded in the qstnLit CDATA field; derived variables (e.g. NIVEL_EDU, IDIOMA_MAT, CONDACT_19) have only a text description. The codebook is pre-parsed and saved as an RDS for convenience.

codebook <- readRDS(CODEBOOK_RDS)

# Helper: look up a variable label by name
cb_label <- function(varname) {
  codebook |>
    filter(variable == toupper(varname)) |>
    pull(label)
}

codebook |> select(variable, label) |> print(n = 40)

# A tibble: 184 × 2
   variable          label                                                      
   <chr>             <chr>                                                      
 1 IDEP              Departamento                                               
 2 IPROV             Provincia                                                  
 3 IMUN              Municipio                                                  
 4 I00               Nro. de vivienda                                           
 5 P24_PARENTES      24. Que parentesco tiene con la jefa o jefe del hogar      
 6 P25_SEXO          25. Es mujer u hombre                                      
 7 P26_EDAD          26. Cuantos años cumplidos tiene                           
 8 P28_CN            28. Su nacimiento está inscrito en el registro civil boliv…
 9 P29_CI            29. Tiene o tuvo cédula de identidad boliviana             
10 P30A_PUBLIC       30.A. Cuando tiene problemas de salud acude a Puesto/centr…
11 P30B_CAJA         30.B. Cuando tiene problemas de salud acude a Caja de salud
12 P30C_PRIVAD       30.C. Cuando tiene problemas de salud acude a Consultorio/…
13 P30D_ATEDOM       30.D. Cuando tiene problemas de salud acude a Atención méd…
14 P30E_TRADIC       30.E. Cuando tiene problemas de salud acude a Médica(o) tr…
15 P30F_AUTOME       30.F. Cuando tiene problemas de salud acude a Farmacia sin…
16 P30G_CASERA       30.G. Cuando tiene problemas de salud acude a Remedios cas…
17 P31_AFILIADO      31. Actualmente esta registrada(o) o afiliada(o) a:        
18 P32_PUEBLO_PER    32. Se autoidentifica con alguna nación pueblo indígena or…
19 P32_PUEBLO_COD    32. Se autoidentifica con alguna nación pueblo indígena or…
20 P331_IDIOHAB1_COD 33.1. Idiomas o lenguas que habla, según el mayor uso: Pri…
21 P332_IDIOHAB2_COD 33.2. Idiomas o lenguas que habla, según el mayor uso: Seg…
22 P333_IDIOHAB3_COD 33.3. Idiomas o lenguas que habla, según el mayor uso: Ter…
23 P334_IDIOHAB_NO   33.4. Idiomas o lenguas que habla, según el mayor uso: No …
24 P341_IDIOMAT_COD  34.1. Primer idioma o lengua en el que aprendió a hablar e…
25 P342_IDIOMAT_NO   34.2.Primer idioma o lengua en el que aprendió a hablar en…
26 P35_LUGNAC        35. Lugar de nacimiento                                    
27 P35J_DEPTOCOD     35.2.A. Departamento de nacimiento                         
28 P35H1_PROVCOD     35.2.B. Provincia de nacimiento                            
29 P35H_MUNCOD       35.2.C. Municipio de nacimiento                            
30 P354_ANLLEGA      35.3.B. Año que llegó a Bolivia                            
31 P353_PAISNAC_COD  35.3. País de nacimiento                                   
32 P36_LUGRES        36. Donde vive habitualmente                               
33 P361_ANRES        36.1. Desde que año reside                                 
34 P36J_DEPTOCOD     36.2.A. Departamento de residencia habitual                
35 P36H1_PROVCOD     36.2.B. Provincia de residencia habitual                   
36 P36H_MUNCOD       36.2.C. Municipio de residencia habitual                   
37 P363_PAISRES_COD  36.3. País de residencia habitual                          
38 P37_LUGRES5       37. Donde vivía el año 2019                                
39 P37J_DEPTOCOD     37.2.A. Departamento donde vivía el año 2019               
40 P37H1_PROVCOD     37.2.B. Provincia donde vivía el año 2019                  
# ℹ 144 more rows
…
Distribution of specific groups (p32_pueblo_cod)

persona_sample |>
  filter(!is.na(p32_pueblo_cod)) |>
  count(p32_pueblo_cod, sort = TRUE, name = "n") |>
  left_join(pueblo_cats, by = c("p32_pueblo_cod" = "code")) |>
  mutate(
    label              = coalesce(label, paste0("Code ", p32_pueblo_cod)),
    pct_of_identifiers = round(100 * n / sum(n), 1),
    pct_of_total       = round(100 * n / nrow(persona_sample), 1)
  ) |>
  select(code = p32_pueblo_cod, label, n, pct_of_identifiers, pct_of_total)

# A tibble: 57 × 5
    code label               n pct_of_identifiers pct_of_total
   <int> <chr>           <int>              <dbl>        <dbl>
 1    28 Quechua          1453               38.7         14.5
 2     3 Aymara           1389               37           13.9
 3   905 Campesino         281                7.5          2.8
 4   999 Sin especificar    86                2.3          0.9
 5    11 Chiquitano         85                2.3          0.8
 6    13 Guaraní            70                1.9          0.7
 7   903 Indígena           52                1.4          0.5
 8    42 Chichas            32                0.9          0.3
 9   904 Originario         29                0.8          0.3
10     1 Afroboliviano      26                0.7          0.3
# ℹ 47 more rows
…
persona_sample |>
  count(idioma_mat, sort = TRUE) |>
  left_join(idioma_cats, by = c("idioma_mat" = "code")) |>
  mutate(
    label = coalesce(label, if_else(is.na(idioma_mat), "(NA / not asked)", paste0("Code ", idioma_mat))),
    pct   = round(100 * n / nrow(persona_sample), 1)
  ) |>
  select(code = idioma_mat, label, n, pct)

# A tibble: 26 × 4
    code label                n   pct
   <dbl> <chr>            <int> <dbl>
 1     6 Castellano        7442  74.4
 2    27 Quechua           1252  12.5
 3     2 Aymara             726   7.3
 4   998 No habla           233   2.3
 5    NA (NA / not asked)   165   1.6
 6    41 Code 41             71   0.7
 7    12 Guaraní             30   0.3
 8    58 Code 58             22   0.2
 9    10 Tsimane´            20   0.2
10    14 Gwarayu              5   0  
# ℹ 16 more rows
…
cross |>
  filter(
    idioma_label == "Castellano",
    !pueblos_label %in% c("No se autoidentifica", "Sin respuesta"),
    !is.na(pueblos_label)
  ) |>
  count(pueblos_label, sort = TRUE) |>
  mutate(
    pct_of_castellano_speakers = round(
      100 * n / sum(cross$idioma_label == "Castellano", na.rm = TRUE), 1
    )
  ) |>
  rename(identity = pueblos_label)

# A tibble: 36 × 3
   identity                n pct_of_castellano_speakers
   <chr>               <int>                      <dbl>
 1 Aymara                803                       10.8
 2 Quechua               592                        8  
 3 Otras declaraciones   269                        3.6
 4 Chiquitano             86                        1.2
 5 Guaraní                40                        0.5
 6 Tacana                 24                        0.3
 7 Chichas                23                        0.3
 8 Afroboliviano          20                        0.3
 9 Leco                   15                        0.2
10 Mojeño Trinitario      14                        0.2
# ℹ 26 more rows
…
