Wrangling ICE Detention Data
…
# Optional: Final cleanup of text and brackets
w_detention_sites_tb <- w_detention_sites_tb %>%
  mutate(across(where(is.character), ~ gsub("\\[\\d+\\]", "", .)))

print(w_detention_sites_tb)

# A tibble: 395 × 15
   name           link  status_year city  state facility_type security authority
   <chr>          <chr> <chr>       <chr> <chr> <chr>         <chr>    <chr>    
 1 Adelanto ICE … http… In use (20… Adel… Cali… Prison        ""       DHS/ICE  
 2 Ada County Ja… <NA>  In use (20… Boise Idaho Prison        "Secure" DHS/ICE  
 3 Adams County … <NA>  In use (20… Brig… Colo… Prison        "Secure" DHS/ICE  
 4 Aguadilla Ser… <NA>  In use (20… Agua… Puer… Migrant dete… "Secure" DHS/ICE  
 5 Alamance Coun… <NA>  In use (20… Grah… Nort… Prison        "Secure" DHS/ICE  
 6 Albany County… <NA>  No Longer … Alba… New … Prison        "Secure" DHS/ICE  
 7 Albany County… <NA>  In use (20… Lara… Wyom… Prison        "Secure" DHS/ICE  
 8 Albuquerque R… <NA>  In use (20… Albu… New … Prison        "Secure" DHS/ICE  
 9 Alexandria Ci… http… In use (20… Alex… Virg… Prison        "Secure" DHS/ICE  
10 Allegheny Cou… http… In use (20… Pitt… Penn… Prison        "Secure" DHS/ICE  
# ℹ 385 more rows
# ℹ 7 more variables: management <chr>, capacity <chr>,
#   max_single_day_pop <chr>, demographicsand_segregation <chr>,
#   linked_article <chr>, primary_name <chr>, wiki_slug <chr>
…
facilities_data_current <- facilities_data_merged$FY26 %>%
  mutate(
    adp = rowSums(select(., starts_with("adp_criminality_")), na.rm = TRUE),
    management = replace_na(management, "")
  )

facilities_data_current %>%
  group_by(facility_type_wiki, facility_state) %>%
  summarise(total_adp = sum(adp))

`summarise()` has grouped output by 'facility_type_wiki'. You can override
using the `.groups` argument.

# A tibble: 71 × 3
# Groups:   facility_type_wiki [8]
   facility_type_wiki           facility_state total_adp
   <chr>                        <chr>              <dbl>
 1 Federal Prison               FL                 459. 
 2 Federal Prison               GA                 107. 
 3 Federal Prison               HI                  79.6
 4 Federal Prison               KS                  57.9
 5 Federal Prison               NH                 202. 
 6 Federal Prison               NY                 111. 
 7 Federal Prison               PA                  98.4
 8 ICE Migrant Detention Center AZ                 330. 
 9 ICE Migrant Detention Center FL                 866. 
10 ICE Migrant Detention Center NY                 738. 
# ℹ 61 more rows
…
